{
    "otherwise": {
        "clientId": "cid-yyq723cjlng10v1",
        "clientSecret": "1EfV4Y48qY4yU61FpdBn/NoQsJfU",
        "redirectUri": "http://localhost/auth/callback",
        "baseUri": "https://auth.pde.co.th/v2/api",
        "authorizationUri": "/authorization",
        "tokenUri": "/token",
        "revokeUri": "/logout"
    },
    "production": {
        "clientId": "cid-xxx",
        "clientSecret": "xxx",
        "redirectUri": "http://production-host:port/auth/callback",
        "baseUri": "https://auth.pde.co.th/v2/api",
        "authorizationUri": "/authorization",
        "tokenUri": "/token",
        "revokeUri": "/logout"
    }
}
